…
Originally there were 6,800 observations. The chosen subset contains women under the age of 80 with no history of diabetes or stroke. I removed 7 observations with missing values in any of the variables. I also removed variables that I have no intention of using.

Task 3: Listing of My Tibble
============================

``` r
dig.data.subset
```

    # A tibble: 984 x 27
       recordID TRTMT   AGE  RACE EJF_PER    BMI CHFDUR  NSYM HEARTRTE DIABP
          <int> <int> <int> <int>   <int>  <dbl>  <int> <int>    <int> <int>
     1        3     0    72     1      36 25.530     12     4       91    70
     2        6     0    69     2      45 27.770     84     4       64    76
     3        7     1    64     1      30 31.694     31     1      102    90
     4       10     1    64     1      24 28.697     33     4      112    80
     5       13     0    66     1      42 32.802      1     4       72    78
     6       27     0    65     2      34 27.673     22     4       85    80
     7       31     1    74     1      30 24.691     84     2       81    70
     8       32     1    77     1      41 25.113     83     4       76    68
     9       41     0    71     2      34 24.314     24     4       88    60
    10       47     0    74     1      38 34.330     25     4       76    70
    # ... with 974 more rows, and 17 more variables: SYSBP <int>,
    #   FUNCTCLS <int>, PREVMI <int>, HYPERTEN <int>, DIGDOSE <dbl>,
    #   WHF <int>, WHFDAYS <int>, DIG <int>, DEATH <int>, DEATHDAY <int>,
    #   TRTMT.F <fctr>, PREVMI.F <fctr>, RACE.F <fctr>, HYPERTEN.F <fctr>,
    #   WHF.F <fctr>, DIG.F <fctr>, FUNCTCLS.F <fctr>

The data set contains 984 observations with 20 columns including the record ID.

\newpage

Task 4: Code Book
=================

    # A tibble: 21 x 3
       Variable         Type
          <chr>        <chr>
     1 recordID    Record ID
     2    TRTMT       Binary
     3      AGE Quantitative
     4     RACE       Binary
     5  EJF_PER Quantitative
     6      BMI Quantitative
     7   CHFDUR      Integer
     8     NSYM      Integer
     9 HEARTRTE Quantitative
    10    DIABP Quantitative
    # ... with 11 more rows, and 1 more variables: Notes <chr>
…
